Data Exploration
…
unique(incidence_regions$SexQF)

## [1] "d" NA

incidence_regions %>%
  select(CancerSiteICD10Code, CancerSite) %>%
  filter(CancerSiteICD10Code == "C44")

## # A tibble: 1,050 x 2
##    CancerSiteICD10Code CancerSite              
##    <chr>               <chr>                   
##  1 C44                 Non-melanoma skin cancer
##  2 C44                 Non-melanoma skin cancer
##  3 C44                 Non-melanoma skin cancer
##  4 C44                 Non-melanoma skin cancer
##  5 C44                 Non-melanoma skin cancer
##  6 C44                 Non-melanoma skin cancer
##  7 C44                 Non-melanoma skin cancer
##  8 C44                 Non-melanoma skin cancer
##  9 C44                 Non-melanoma skin cancer
## 10 C44                 Non-melanoma skin cancer
## # ... with 1,040 more rows

# Therefore C44 - Non-melanoma skin cancer no included in all cancers
# Why?

unique(incidence_regions$WASRLower95pcConfidenceIntervalQF)

## [1] NA  "z"

# NA and z, z meaning that the number is not statistically significant 

incidence_regions %>%
  filter(WASRLower95pcConfidenceIntervalQF == "z")

## # A tibble: 26,755 x 23
##    HB        CancerSiteICD10Code CancerSite   Sex   SexQF  Year IncidencesAllAg~
##    <chr>     <chr>               <chr>        <chr> <chr> <dbl>            <dbl>
##  1 S08000015 C67                 Bladder      Fema~ <NA>   2001               19
##  2 S08000015 C67                 Bladder      Fema~ <NA>   2003               17
##  3 S08000015 C67                 Bladder      Fema~ <NA>   2006               16
##  4 S08000015 C67                 Bladder      Fema~ <NA>   2011               16
##  5 S08000015 C67                 Bladder      Fema~ <NA>   2019               17
##  6 S08000015 C40-C41             Bone and ar~ All   d      1995                2
##  7 S08000015 C40-C41             Bone and ar~ All   d      1996                4
##  8 S08000015 C40-C41             Bone and ar~ All   d      1997                4
##  9 S08000015 C40-C41             Bone and ar~ All   d      1998                2
## 10 S08000015 C40-C41             Bone and ar~ All   d      1999                2
## # ... with 26,745 more rows, and 16 more variables: CrudeRate <dbl>,
## #   CrudeRateLower95pcConfidenceInterval <dbl>,
## #   CrudeRateUpper95pcConfidenceInterval <dbl>, EASR <dbl>,
## #   EASRLower95pcConfidenceInterval <dbl>,
## #   EASRLower95pcConfidenceIntervalQF <chr>,
## #   EASRUpper95pcConfidenceInterval <dbl>,
## #   EASRUpper95pcConfidenceIntervalQF <chr>, WASR <dbl>, ...
…
What cancers had the highest change between 1995 and 2020?

# I was able to calculate the absolute change and percentage change between 1995 and 2019, by using a summarise function. I then arranged the data by percent change and chose the top 20 values in terms of percent change to take a look at closer.

incidence_clean %>%
  filter(health_board_name == "Borders") %>%
  filter(sex == "All") %>%
  group_by(cancer_site) %>%
  summarise(percent_change_in_incidences = (incidences_all_ages/lag(incidences_all_ages, n = 24) - 1) *100,
            absolute_change_in_incidences = diff(incidences_all_ages, lag = 24) ) %>%
  arrange(desc(percent_change_in_incidences)) %>%
  head(21)

## # A tibble: 21 x 3
## # Groups:   cancer_site [21]
##    cancer_site                       percent_change_in_in~ absolute_change_in_i~
##    <chr>                                             <dbl>                 <dbl>
##  1 All brain and CNS tumours (malig~                  Inf                     23
##  2 Non-malig brain ca (incl pit.gla~                  Inf                     10
##  3 Salivary glands                                    Inf                      2
##  4 Carcinoma in situ of the breast                    600                      6
##  5 Tongue                                             400                      4
##  6 Connective tissue                                  300                      3
##  7 Liver and intrahepatic bile ducts                  200                      6
##  8 Thyroid                                            200                      2
##  9 Multiple myeloma and malignant p~                  167.                    10
## 10 Oropharyngeal cancers                              120                      6
## # ... with 11 more rows
…
